%YAML 1.1
%TAG !u! tag:unity3d.com,2011:
--- !u!21 &2100000
Material:
  serializedVersion: 6
  m_ObjectHideFlags: 0
  m_CorrespondingSourceObject: {fileID: 0}
  m_PrefabInstance: {fileID: 0}
  m_PrefabAsset: {fileID: 0}
  m_Name: Hadas 2
  m_Shader: {fileID: 45, guid: 0000000000000000f000000000000000, type: 0}
  m_ShaderKeywords: _ALPHABLEND_ON _BLENDMAINNORMAL_ON _EMISSION _SMOOTHNESS_TEXTURE_ALBEDO_CHANNEL_A
    _SOURCE_SPECULARALPHA
  m_LightmapFlags: 2
  m_EnableInstancingVariants: 0
  m_DoubleSidedGI: 0
  m_CustomRenderQueue: 3000
  stringTagMap:
    RenderType: Transparent
  disabledShaderPasses: []
  m_SavedProperties:
    serializedVersion: 3
    m_TexEnvs:
    - _BumpMap:
        m_Texture: {fileID: 0}
        m_Scale: {x: 1, y: 1}
        m_Offset: {x: 0, y: 0}
    - _CutoutMap:
        m_Texture: {fileID: 2800000, guid: 47cc7e78bc10f854880856b9dc710852, type: 3}
        m_Scale: {x: 1, y: 1}
        m_Offset: {x: 0, y: 0}
    - _DetailAlbedoMap:
        m_Texture: {fileID: 0}
        m_Scale: {x: 1, y: 1}
        m_Offset: {x: 0, y: 0}
    - _DetailMask:
        m_Texture: {fileID: 0}
        m_Scale: {x: 1, y: 1}
        m_Offset: {x: 0, y: 0}
    - _DetailNormalMap:
        m_Texture: {fileID: 0}
        m_Scale: {x: 1, y: 1}
        m_Offset: {x: 0, y: 0}
    - _EmissionMap:
        m_Texture: {fileID: 2800000, guid: d3424551e0d92344896b338fae912938, type: 3}
        m_Scale: {x: 1, y: 1}
        m_Offset: {x: 0, y: 0}
    - _MainTex:
        m_Texture: {fileID: 2800000, guid: a7b34959343cccf47b32fe06432b8ed5, type: 3}
        m_Scale: {x: 1, y: 1}
        m_Offset: {x: 0, y: 0}
    - _MetallicGlossMap:
        m_Texture: {fileID: 0}
        m_Scale: {x: 1, y: 1}
        m_Offset: {x: 0, y: 0}
    - _OcclusionMap:
        m_Texture: {fileID: 0}
        m_Scale: {x: 1, y: 1}
        m_Offset: {x: 0, y: 0}
    - _ParallaxMap:
        m_Texture: {fileID: 0}
        m_Scale: {x: 1, y: 1}
        m_Offset: {x: 0, y: 0}
    - _SpecGlossMap:
        m_Texture: {fileID: 0}
        m_Scale: {x: 1, y: 1}
        m_Offset: {x: 0, y: 0}
    - _texcoord:
        m_Texture: {fileID: 0}
        m_Scale: {x: 1, y: 1}
        m_Offset: {x: 0, y: 0}
    m_Floats:
    - _AoIntensity: 1
    - _BlendMainNormal: 1
    - _Brightness: 1
    - _BumpScale: 1
    - _ContrastDetailMap: 0
    - _Cull: 0
    - _Cutoff: 0.715
    - _DetailBrightness: 1
    - _DetailNormalMapScale: 1
    - _DetailSaturation: 0
    - _DstBlend: 10
    - _EmissionIntensity: 1
    - _EnableDetailMask: 0
    - _GlossMapScale: 1
    - _Glossiness: 0.5
    - _GlossyReflections: 1
    - _IntensityCutoutMap: 0.286
    - _IntensityMask: 1
    - _InvertABaseColor: 0
    - _InvertCutout: 0
    - _InvertMask: 0
    - _Metallic: 0
    - _Mode: 2
    - _OcclusionStrength: 1
    - _Parallax: 0.02
    - _Saturation: 0
    - _SmoothnessTextureChannel: 1
    - _Source: 0
    - _SourceMask: 0
    - _SpecularHighlights: 1
    - _SpecularIntensity: 0.2
    - _SpreadDetailMap: 0
    - _SrcBlend: 5
    - _UVSec: 0
    - _UseBaseColorAlpha: 0
    - _VisualizeMask: 0
    - _ZTest: 4
    - _ZWrite: 0
    - __dirty: 1
    m_Colors:
    - _Color: {r: 1, g: 1, b: 1, a: 1}
    - _DetailColor: {r: 1, g: 1, b: 1, a: 0}
    - _EmissionColor: {r: 0.6509434, g: 0.6509434, b: 0.6509434, a: 1}
    - _GlobalXYTilingXYZWOffsetXY: {r: 1, g: 1, b: 0, a: 0}
    - _SpecColor: {r: 0.2, g: 0.2, b: 0.2, a: 1}
    - _SpecularColor: {r: 1, g: 1, b: 1, a: 0}
